algebra-de-bool-funciones-logicas/eje4/eje4_tb.vcd
$date
	Sat May 10 14:13:44 2025
$end
$version
	Icarus Verilog
$end
$timescale
	1ps
$end
$scope module eje4_tb $end
$var reg 1 ! A $end
$upscope $end
$scope module eje4_tb $end
$var reg 1 " B $end
$upscope $end
$scope module eje4_tb $end
$var reg 1 # C $end
$upscope $end
$scope module eje4_tb $end
$var reg 1 $ D $end
$upscope $end
$scope module eje4_tb $end
$var reg 1 % E $end
$upscope $end
$scope module eje4_tb $end
$var reg 1 & F $end
$upscope $end
$scope module eje4_tb $end
$var wire 1 ' f_1 $end
$upscope $end
$scope module eje4_tb $end
$var wire 1 ( g_1 $end
$upscope $end
$scope module eje4_tb $end
$var wire 1 ) h_1 $end
$upscope $end
$scope module eje4_tb $end
$var wire 1 * f_2 $end
$upscope $end
$scope module eje4_tb $end
$var wire 1 + g_2 $end
$upscope $end
$scope module eje4_tb $end
$var wire 1 , h_2 $end
$upscope $end
$enddefinitions $end
$comment Show the parameter values. $end
$dumpall
$end
#0
$dumpvars
x,
x+
x*
x)
x(
x'
x&
x%
x$
x#
x"
x!
$end
#100000
1,
1)
0(
1*
1'
0+
0!
0"
0#
0$
0%
0&
#200000
0)
0,
1&
#300000
1)
1,
1%
0&
#400000
0'
0*
1&
#500000
0'
0*
1$
0%
0&
#600000
0)
0,
1&
#700000
1)
1,
1%
0&
#800000
1&
#900000
1'
1*
1#
0$
0%
0&
#1000000
0)
0,
1&
#1100000
1)
1,
1%
0&
#1200000
0'
0*
1&
#1300000
0)
0,
1'
1*
1$
0%
0&
#1400000
1&
#1500000
1%
0&
#1600000
0'
0*
1&
#1700000
1(
1)
1,
1+
1'
1*
1"
0#
0$
0%
0&
#1800000
0)
0,
1&
#1900000
1)
1,
1%
0&
#2000000
0'
0*
1&
#2100000
0'
0*
1$
0%
0&
#2200000
0(
0)
0,
0+
1&
#2300000
1(
1)
1,
1+
1%
0&
#2400000
1&
#2500000
0(
0+
1'
1*
1#
0$
0%
0&
#2600000
0)
0,
1&
#2700000
1)
1,
1%
0&
#2800000
0'
0*
1&
#2900000
0)
0,
1'
1*
1$
0%
0&
#3000000
1&
#3100000
1%
0&
#3200000
0'
0*
1&
#3300000
1)
1,
1(
0'
0*
1+
1!
0"
0#
0$
0%
0&
#3400000
0)
0,
1&
#3500000
1)
1,
1%
0&
#3600000
1&
#3700000
1$
0%
0&
#3800000
0(
0)
0,
0+
1&
#3900000
1(
1)
1,
1+
1%
0&
#4000000
1&
#4100000
1#
0$
0%
0&
#4200000
0)
0,
1&
#4300000
1)
1,
1%
0&
#4400000
1&
#4500000
0)
0,
1$
0%
0&
#4600000
0(
0+
1&
#4700000
1(
1+
1%
0&
#4800000
1&
#4900000
1'
1)
1,
1*
1"
0#
0$
0%
0&
#5000000
1&
#5100000
1%
0&
#5200000
0'
0*
1&
#5300000
0'
0*
1$
0%
0&
#5400000
0(
0+
1&
#5500000
1(
1+
1%
0&
#5600000
1&
#5700000
1'
1*
1#
0$
0%
0&
#5800000
1&
#5900000
1%
0&
#6000000
0'
0*
1&
#6100000
1'
1*
1$
0%
0&
#6200000
0(
0+
1&
#6300000
1(
1+
1%
0&
#6400000
0'
0*
1&
