algebra-de-bool-funciones-logicas/eje3/eje3_tb.vcd
$date
	Sat May 10 11:57:53 2025
$end
$version
	Icarus Verilog
$end
$timescale
	1ps
$end
$scope module eje3_tb $end
$var reg 1 ! A $end
$upscope $end
$scope module eje3_tb $end
$var reg 1 " B $end
$upscope $end
$scope module eje3_tb $end
$var reg 1 # C $end
$upscope $end
$scope module eje3_tb $end
$var reg 1 $ D $end
$upscope $end
$scope module eje3_tb $end
$var wire 1 % x $end
$upscope $end
$scope module eje3_tb $end
$var wire 1 & y $end
$upscope $end
$scope module eje3_tb $end
$var wire 1 ' z $end
$upscope $end
$enddefinitions $end
$comment Show the parameter values. $end
$dumpall
$end
#0
$dumpvars
x'
x&
x%
x$
x#
x"
x!
$end
#100000
1'
0&
0%
0!
0"
0#
0$
#200000
1&
1$
#300000
1&
1#
0$
#400000
0'
1$
#500000
1'
1&
1"
0#
0$
#600000
0'
1$
#700000
1#
0$
#800000
1'
1$
#900000
1'
1!
0"
0#
0$
#1000000
0'
1$
#1100000
1#
0$
#1200000
1'
1$
#1300000
0'
1"
0#
0$
#1400000
1'
1$
#1500000
1'
1#
0$
#1600000
1%
1$
