algebra-de-bool-funciones-logicas/eje9/eje9_tb.vcd
$date
	Sun May 11 17:19:37 2025
$end
$version
	Icarus Verilog
$end
$timescale
	1ps
$end
$scope module eje9_tb $end
$var reg 1 ! A $end
$upscope $end
$scope module eje9_tb $end
$var reg 1 " B $end
$upscope $end
$scope module eje9_tb $end
$var reg 1 # C $end
$upscope $end
$scope module eje9_tb $end
$var reg 1 $ D $end
$upscope $end
$scope module eje9_tb $end
$var reg 1 % E $end
$upscope $end
$scope module eje9_tb $end
$var wire 1 & f $end
$upscope $end
$scope module eje9_tb $end
$var wire 1 ' f_2 $end
$upscope $end
$scope module eje9_tb $end
$var wire 1 ( g $end
$upscope $end
$scope module eje9_tb $end
$var wire 1 ) g_2 $end
$upscope $end
$scope module eje9_tb $end
$var wire 1 * h $end
$upscope $end
$scope module eje9_tb $end
$var wire 1 + h_2 $end
$upscope $end
$scope module eje9_tb $end
$var wire 1 , i $end
$upscope $end
$scope module eje9_tb $end
$var wire 1 - i_2 $end
$upscope $end
$enddefinitions $end
$comment Show the parameter values. $end
$dumpall
$end
#0
$dumpvars
x-
x,
x+
x*
x)
x(
x'
x&
x%
x$
x#
x"
x!
$end
#100000
1-
1,
1)
1(
0*
0&
0'
0+
0!
0"
0#
0$
0%
#200000
0-
0,
1%
#300000
0-
0)
0,
0(
1$
0%
#400000
1,
1-
1%
#500000
0,
0-
1)
1(
1*
1+
1#
0$
0%
#600000
1%
#700000
1$
0%
#800000
1-
1,
1%
#900000
0-
0(
0)
1&
0,
1'
0*
0+
1"
0#
0$
0%
#1000000
1%
#1100000
1,
1-
1$
0%
#1200000
0,
0-
1%
#1300000
0&
0'
1+
1*
1#
0$
0%
#1400000
1-
1,
1%
#1500000
1,
1$
0%
#1600000
0,
0-
1%
#1700000
1)
1(
1*
1!
0"
0#
0$
0%
#1800000
1%
#1900000
0)
0(
1$
0%
#2000000
1,
1-
1%
#2100000
0,
0)
0-
1&
1'
1#
0$
0%
#2200000
1%
#2300000
1)
1(
1$
0%
#2400000
1%
#2500000
1,
1-
0)
0&
0'
1(
1"
0#
0$
0%
#2600000
0,
0-
1%
#2700000
1,
1)
1-
1$
0%
#2800000
1%
#2900000
0*
0+
1&
1'
0-
0,
1#
0$
0%
#3000000
1%
#3100000
1$
0%
#3200000
1%
