algebra-de-bool-funciones-logicas/eje10/eje10_tb.vcd
$date
	Sun May 11 18:32:15 2025
$end
$version
	Icarus Verilog
$end
$timescale
	1ps
$end
$scope module eje10_tb $end
$var reg 1 ! A $end
$upscope $end
$scope module eje10_tb $end
$var reg 1 " B $end
$upscope $end
$scope module eje10_tb $end
$var reg 1 # C $end
$upscope $end
$scope module eje10_tb $end
$var reg 1 $ D $end
$upscope $end
$scope module eje10_tb $end
$var reg 1 % E $end
$upscope $end
$scope module eje10_tb $end
$var wire 1 & P $end
$upscope $end
$scope module eje10_tb $end
$var wire 1 ' X $end
$upscope $end
$scope module eje10_tb $end
$var wire 1 ( T $end
$upscope $end
$scope module eje10_tb $end
$var reg 1 ) reset $end
$upscope $end
$enddefinitions $end
$comment Show the parameter values. $end
$dumpall
$end
#0
$dumpvars
1)
x(
x'
x&
x%
x$
x#
x"
x!
$end
#100000
1(
0&
1'
0!
0"
0#
0$
0%
0)
#200000
0(
0'
1%
#300000
0(
1&
1'
1$
0%
#400000
1(
0'
1%
#500000
0(
0&
1'
1#
0$
0%
#600000
1&
0'
1%
#700000
1(
0&
1'
1$
0%
#800000
0(
1&
0'
1%
#900000
0(
0&
1'
1"
0#
0$
0%
#1000000
1(
0'
1%
#1100000
0(
1'
1$
0%
#1200000
1&
0'
1%
#1300000
1(
0&
1'
1#
0$
0%
#1400000
0(
1&
0'
1%
#1500000
0(
0&
1'
1$
0%
#1600000
1(
0'
1%
#1700000
0(
1'
1!
0"
0#
0$
0%
#1800000
1&
0'
1%
#1900000
1(
0&
1'
1$
0%
#2000000
0(
1&
0'
1%
#2100000
0&
1'
1#
0$
0%
#2200000
1(
0'
1%
#2300000
0(
1'
1$
0%
#2400000
1&
0'
1%
#2500000
1(
0&
1'
1"
0#
0$
0%
#2600000
0(
0'
1%
#2700000
0(
1'
1$
0%
#2800000
1(
0'
1%
#2900000
0(
1'
1#
0$
0%
#3000000
1&
0'
1%
#3100000
1(
0&
1'
1$
0%
#3200000
0(
1&
0'
1%
